﻿<?xml version="1.0" encoding="UTF-8"?>
<TestRun id="d646d65a-ef8c-4942-bc11-c25e7236f2b2" name="SINGD13@LT026537 2014-07-09 17:18:42" runUser="AVIVAGROUP\SINGD13" xmlns="http://microsoft.com/schemas/VisualStudio/TeamTest/2010">
  <TestSettings name="Default Test Settings" id="410cf375-5367-4735-af85-86b72bf7a1da">
    <Deployment runDeploymentRoot="SINGD13_LT026537 2014-07-09 17_18_42">
      <DeploymentItem filename="D:\SampleMVCDemo\SampleMVCDemo\packages\Microsoft.AspNet.WebPages.2.0.20710.0\lib\net40\System.Web.WebPages.Deployment.dll" />
      <DeploymentItem filename="D:\SampleMVCDemo\SampleMVCDemo\packages\Microsoft.Web.Infrastructure.1.0.0.0\lib\net40\Microsoft.Web.Infrastructure.dll" />
      <DeploymentItem filename="D:\SampleMVCDemo\SampleMVCDemo\packages\Microsoft.AspNet.WebApi.Core.4.0.20710.0\lib\net40\System.Web.Http.dll" />
      <DeploymentItem filename="D:\SampleMVCDemo\SampleMVCDemo\packages\Microsoft.AspNet.WebPages.2.0.20710.0\lib\net40\System.Web.WebPages.dll" />
      <DeploymentItem filename="D:\SampleMVCDemo\SampleMVCDemo\packages\Newtonsoft.Json.4.5.6\lib\net40\Newtonsoft.Json.dll" />
      <DeploymentItem filename="D:\SampleMVCDemo\SampleMVCDemo\packages\Microsoft.AspNet.WebPages.2.0.20710.0\lib\net40\System.Web.WebPages.Razor.dll" />
      <DeploymentItem filename="D:\SampleMVCDemo\SampleMVCDemo\packages\Microsoft.AspNet.Razor.2.0.20710.0\lib\net40\System.Web.Razor.dll" />
      <DeploymentItem filename="D:\SampleMVCDemo\SampleMVCDemo\packages\Microsoft.Net.Http.2.0.20710.0\lib\net40\System.Net.Http.WebRequest.dll" />
      <DeploymentItem filename="D:\SampleMVCDemo\SampleMVCDemo\packages\Microsoft.AspNet.WebPages.2.0.20710.0\lib\net40\System.Web.Helpers.dll" />
      <DeploymentItem filename="D:\SampleMVCDemo\SampleMVCDemo\packages\Microsoft.AspNet.WebApi.WebHost.4.0.20710.0\lib\net40\System.Web.Http.WebHost.dll" />
      <DeploymentItem filename="D:\SampleMVCDemo\SampleMVCDemo\packages\Microsoft.AspNet.Mvc.4.0.20710.0\lib\net40\System.Web.Mvc.dll" />
      <DeploymentItem filename="D:\SampleMVCDemo\SampleMVCDemo\SampleMVCDemo\bin\SampleMVCDemo.dll" />
      <DeploymentItem filename="D:\SampleMVCDemo\SampleMVCDemo\packages\Microsoft.AspNet.WebApi.Client.4.0.20710.0\lib\net40\System.Net.Http.Formatting.dll" />
      <DeploymentItem filename="D:\SampleMVCDemo\SampleMVCDemo\packages\Microsoft.Net.Http.2.0.20710.0\lib\net40\System.Net.Http.dll" />
    </Deployment>
    <Execution>
      <TestTypeSpecific />
      <AgentRule name="Execution Agents">
      </AgentRule>
    </Execution>
  </TestSettings>
  <Times creation="2014-07-09T17:18:42.9364670+01:00" queuing="2014-07-09T17:18:44.6836670+01:00" start="2014-07-09T17:18:44.6992670+01:00" finish="2014-07-09T17:18:45.1672670+01:00" />
  <ResultSummary outcome="Failed">
    <Counters total="1" executed="1" error="0" failed="1" timeout="0" aborted="0" inconclusive="0" passedButRunAborted="0" notRunnable="0" notExecuted="0" disconnected="0" warning="0" passed="0" completed="0" inProgress="0" pending="0" />
  </ResultSummary>
  <TestDefinitions>
    <UnitTest name="ValidInputTestData" storage="d:\samplemvcdemo\samplemvcdemo\samplemvcdemo.tests\bin\debug\samplemvcdemo.tests.dll" id="a82ffb51-0499-7529-db0e-a18e917f561b">
      <Execution id="635e4a51-9ab9-418f-803e-dc82500a6b6a" />
      <TestMethod codeBase="D:/SampleMVCDemo/SampleMVCDemo/SampleMVCDemo.Tests/bin/Debug/SampleMVCDemo.Tests.DLL" adapterTypeName="Microsoft.VisualStudio.TestTools.TestTypes.Unit.UnitTestAdapter, Microsoft.VisualStudio.QualityTools.Tips.UnitTest.Adapter, Version=10.0.0.0, Culture=neutral, PublicKeyToken=b03f5f7f11d50a3a" className="SampleMVCDemo.Tests.Controller.HomeControllerTest, SampleMVCDemo.Tests, Version=1.0.0.0, Culture=neutral, PublicKeyToken=null" name="ValidInputTestData" />
    </UnitTest>
  </TestDefinitions>
  <TestLists>
    <TestList name="Results Not in a List" id="8c84fa94-04c1-424b-9868-57a2d4851a1d" />
    <TestList name="All Loaded Results" id="19431567-8539-422a-85d7-44ee4e166bda" />
  </TestLists>
  <TestEntries>
    <TestEntry testId="a82ffb51-0499-7529-db0e-a18e917f561b" executionId="635e4a51-9ab9-418f-803e-dc82500a6b6a" testListId="8c84fa94-04c1-424b-9868-57a2d4851a1d" />
  </TestEntries>
  <Results>
    <UnitTestResult executionId="635e4a51-9ab9-418f-803e-dc82500a6b6a" testId="a82ffb51-0499-7529-db0e-a18e917f561b" testName="ValidInputTestData" computerName="LT026537" duration="00:00:00.1229619" startTime="2014-07-09T17:18:44.6992670+01:00" endTime="2014-07-09T17:18:45.1516670+01:00" testType="13cdc9d9-ddb5-4fa4-a97d-d965ccfc6d4b" outcome="Failed" testListId="8c84fa94-04c1-424b-9868-57a2d4851a1d" relativeResultsDirectory="635e4a51-9ab9-418f-803e-dc82500a6b6a">
      <Output>
        <ErrorInfo>
          <Message>Assert.AreEqual failed. Expected:&lt;System.Collections.Generic.List`1[System.String]&gt;. Actual:&lt;System.Collections.Generic.List`1[System.String]&gt;. </Message>
          <StackTrace>   at CallSite.Target(Closure , CallSite , Type , List`1 , Object )
   at System.Dynamic.UpdateDelegates.UpdateAndExecuteVoid3[T0,T1,T2](CallSite site, T0 arg0, T1 arg1, T2 arg2)
   at SampleMVCDemo.Tests.Controller.HomeControllerTest.ValidInputTestData() in D:\SampleMVCDemo\SampleMVCDemo\SampleMVCDemo.Tests\Controller\HomeControllerTest.cs:line 77
</StackTrace>
        </ErrorInfo>
      </Output>
    </UnitTestResult>
  </Results>
</TestRun>