﻿<?xml version="1.0" encoding="UTF-8"?>
<TestRun id="a8d23238-9b44-44c6-b0dc-511d998dbe97" name="SINGD13@LT026537 2014-07-09 16:57:39" runUser="AVIVAGROUP\SINGD13" xmlns="http://microsoft.com/schemas/VisualStudio/TeamTest/2010">
  <TestSettings name="Default Test Settings" id="5ef19320-a535-44af-aa65-c77dba0a3d3a">
    <Deployment runDeploymentRoot="SINGD13_LT026537 2014-07-09 16_57_39">
      <DeploymentItem filename="D:\SampleMVCDemo\SampleMVCDemo\packages\Microsoft.AspNet.WebPages.2.0.20710.0\lib\net40\System.Web.WebPages.Deployment.dll" />
      <DeploymentItem filename="D:\SampleMVCDemo\SampleMVCDemo\packages\Microsoft.Web.Infrastructure.1.0.0.0\lib\net40\Microsoft.Web.Infrastructure.dll" />
      <DeploymentItem filename="D:\SampleMVCDemo\SampleMVCDemo\packages\Microsoft.AspNet.WebApi.Core.4.0.20710.0\lib\net40\System.Web.Http.dll" />
      <DeploymentItem filename="D:\SampleMVCDemo\SampleMVCDemo\packages\Microsoft.AspNet.WebPages.2.0.20710.0\lib\net40\System.Web.WebPages.dll" />
      <DeploymentItem filename="D:\SampleMVCDemo\SampleMVCDemo\packages\Newtonsoft.Json.4.5.6\lib\net40\Newtonsoft.Json.dll" />
      <DeploymentItem filename="D:\SampleMVCDemo\SampleMVCDemo\packages\Microsoft.AspNet.WebPages.2.0.20710.0\lib\net40\System.Web.WebPages.Razor.dll" />
      <DeploymentItem filename="D:\SampleMVCDemo\SampleMVCDemo\packages\Microsoft.AspNet.Razor.2.0.20710.0\lib\net40\System.Web.Razor.dll" />
      <DeploymentItem filename="D:\SampleMVCDemo\SampleMVCDemo\packages\Microsoft.Net.Http.2.0.20710.0\lib\net40\System.Net.Http.WebRequest.dll" />
      <DeploymentItem filename="D:\SampleMVCDemo\SampleMVCDemo\packages\Microsoft.AspNet.WebPages.2.0.20710.0\lib\net40\System.Web.Helpers.dll" />
      <DeploymentItem filename="D:\SampleMVCDemo\SampleMVCDemo\packages\Microsoft.AspNet.WebApi.WebHost.4.0.20710.0\lib\net40\System.Web.Http.WebHost.dll" />
      <DeploymentItem filename="D:\SampleMVCDemo\SampleMVCDemo\packages\Microsoft.AspNet.Mvc.4.0.20710.0\lib\net40\System.Web.Mvc.dll" />
      <DeploymentItem filename="D:\SampleMVCDemo\SampleMVCDemo\SampleMVCDemo\bin\SampleMVCDemo.dll" />
      <DeploymentItem filename="D:\SampleMVCDemo\SampleMVCDemo\packages\Microsoft.AspNet.WebApi.Client.4.0.20710.0\lib\net40\System.Net.Http.Formatting.dll" />
      <DeploymentItem filename="D:\SampleMVCDemo\SampleMVCDemo\packages\Microsoft.Net.Http.2.0.20710.0\lib\net40\System.Net.Http.dll" />
    </Deployment>
    <Execution>
      <TestTypeSpecific />
      <AgentRule name="Execution Agents">
      </AgentRule>
    </Execution>
  </TestSettings>
  <Times creation="2014-07-09T16:57:39.4306331+01:00" queuing="2014-07-09T16:57:42.2063659+01:00" start="2014-07-09T16:57:42.4559595+01:00" finish="2014-07-09T16:58:30.0971379+01:00" />
  <ResultSummary outcome="Error">
    <Counters total="2" executed="2" passed="1" error="0" failed="0" timeout="0" aborted="1" inconclusive="0" passedButRunAborted="0" notRunnable="0" notExecuted="0" disconnected="0" warning="0" completed="0" inProgress="0" pending="0" />
    <RunInfos>
      <RunInfo computerName="LT026537" outcome="Error" timestamp="2014-07-09T16:58:30.0815383+01:00">
        <Text>Test host process exited unexpectedly.</Text>
      </RunInfo>
    </RunInfos>
  </ResultSummary>
  <TestDefinitions>
    <UnitTest name="InvalidInputTest" storage="d:\samplemvcdemo\samplemvcdemo\samplemvcdemo.tests\bin\debug\samplemvcdemo.tests.dll" id="c38edebf-a674-5612-0009-0b9e8956fc72">
      <Execution id="cab3b305-5bf3-4f50-a8a6-a12325203411" />
      <TestMethod codeBase="D:/SampleMVCDemo/SampleMVCDemo/SampleMVCDemo.Tests/bin/Debug/SampleMVCDemo.Tests.DLL" adapterTypeName="Microsoft.VisualStudio.TestTools.TestTypes.Unit.UnitTestAdapter, Microsoft.VisualStudio.QualityTools.Tips.UnitTest.Adapter, Version=10.0.0.0, Culture=neutral, PublicKeyToken=b03f5f7f11d50a3a" className="SampleMVCDemo.Tests.Controller.HomeControllerTest, SampleMVCDemo.Tests, Version=1.0.0.0, Culture=neutral, PublicKeyToken=null" name="InvalidInputTest" />
    </UnitTest>
    <UnitTest name="Index" storage="d:\samplemvcdemo\samplemvcdemo\samplemvcdemo.tests\bin\debug\samplemvcdemo.tests.dll" id="8d93a68d-1958-5579-7e88-8d00ee37287e">
      <Execution id="9e508326-10d3-4ec3-9e41-5f4f336d6fbe" />
      <TestMethod codeBase="D:/SampleMVCDemo/SampleMVCDemo/SampleMVCDemo.Tests/bin/Debug/SampleMVCDemo.Tests.DLL" adapterTypeName="Microsoft.VisualStudio.TestTools.TestTypes.Unit.UnitTestAdapter, Microsoft.VisualStudio.QualityTools.Tips.UnitTest.Adapter, Version=10.0.0.0, Culture=neutral, PublicKeyToken=b03f5f7f11d50a3a" className="SampleMVCDemo.Tests.Controller.HomeControllerTest, SampleMVCDemo.Tests, Version=1.0.0.0, Culture=neutral, PublicKeyToken=null" name="Index" />
    </UnitTest>
  </TestDefinitions>
  <TestLists>
    <TestList name="Results Not in a List" id="8c84fa94-04c1-424b-9868-57a2d4851a1d" />
    <TestList name="All Loaded Results" id="19431567-8539-422a-85d7-44ee4e166bda" />
  </TestLists>
  <TestEntries>
    <TestEntry testId="8d93a68d-1958-5579-7e88-8d00ee37287e" executionId="9e508326-10d3-4ec3-9e41-5f4f336d6fbe" testListId="8c84fa94-04c1-424b-9868-57a2d4851a1d" />
    <TestEntry testId="c38edebf-a674-5612-0009-0b9e8956fc72" executionId="cab3b305-5bf3-4f50-a8a6-a12325203411" testListId="8c84fa94-04c1-424b-9868-57a2d4851a1d" />
  </TestEntries>
  <Results>
    <UnitTestResult executionId="9e508326-10d3-4ec3-9e41-5f4f336d6fbe" testId="8d93a68d-1958-5579-7e88-8d00ee37287e" testName="Index" computerName="LT026537" duration="00:00:00.6676004" startTime="2014-07-09T16:57:42.6587543+01:00" endTime="2014-07-09T16:57:45.9970687+01:00" testType="13cdc9d9-ddb5-4fa4-a97d-d965ccfc6d4b" outcome="Passed" testListId="8c84fa94-04c1-424b-9868-57a2d4851a1d" relativeResultsDirectory="9e508326-10d3-4ec3-9e41-5f4f336d6fbe">
    </UnitTestResult>
    <UnitTestResult executionId="cab3b305-5bf3-4f50-a8a6-a12325203411" testId="c38edebf-a674-5612-0009-0b9e8956fc72" testName="InvalidInputTest" computerName="LT026537" duration="00:00:44.0688700" startTime="2014-07-09T16:57:46.0282679+01:00" endTime="2014-07-09T16:58:30.0971379+01:00" testType="13cdc9d9-ddb5-4fa4-a97d-d965ccfc6d4b" outcome="Aborted" testListId="8c84fa94-04c1-424b-9868-57a2d4851a1d" relativeResultsDirectory="cab3b305-5bf3-4f50-a8a6-a12325203411">
    </UnitTestResult>
  </Results>
</TestRun>